{
    "ctrlCfg": {
        "cfg": {
            "cmdPeriod": 6.250000073038109e-09,
            "idle": {
                "word": 2863311530
            },
            "pulse": {
                "interval": 500,
                "word": 0
            },
            "rxActiveLanes": 1,
            "rxPolarity": 65535,
            "specNum": 0,
            "spiConfig": 541200,
            "sync": {
                "interval": 16,
                "word": 2172551550
            },
            "txPolarity": 0
        },
        "type": "spec"
    }
}