[
    {
        "testRun": "654a203329ece10041a5befc",
        "title": "output.log",
        "data_id": "654a1f86f27d00e5043bba4d"
    },
    {
        "testRun": "654a203329ece10041a5befc",
        "title": "0x14b6d.log",
        "data_id": "654a1f86f27d00e5043bba4f"
    },
    {
        "testRun": "654a203329ece10041a5befc",
        "title": "0x14b6d_TUNING_BAD_Threshold_1d.png",
        "data_id": "654a1f86f27d00e5043bba51"
    },
    {
        "testRun": "654a203329ece10041a5befc",
        "title": "0x14b6d_HIGH_ENC_Noise_1d.png",
        "data_id": "654a1f86f27d00e5043bba53"
    },
    {
        "testRun": "654a203329ece10041a5befc",
        "title": "0x14b6d_PFA_electrical_failures.png",
        "data_id": "654a1f86f27d00e5043bba55"
    },
    {
        "testRun": "654a203329ece10041a5befc",
        "title": "0x14b6d_PIXEL_FAILURE_ANALYSIS_depclassification.png",
        "data_id": "654a1f86f27d00e5043bba57"
    },
    {
        "testRun": "654a203329ece10041a5befc",
        "title": "0x14b6d_PIXEL_FAILURE_ANALYSIS_indepclassification.png",
        "data_id": "654a1f86f27d00e5043bba59"
    },
    {
        "testRun": "654a203329ece10041a5befc",
        "title": "0x14b6d_summary_.png",
        "data_id": "654a1f86f27d00e5043bba5b"
    },
    {
        "testRun": "654a203329ece10041a5befc",
        "title": "20UPGFC0084845_MODULE__INITIAL_COLD_PIXEL-FAILURE-ANALYSIS.zip",
        "data_id": "654a1f88f27d00e5043bba5d"
    }
]