{
    "_id": {
        "$oid": "64ed33a57abd3db7d0075e85"
    },
    "__config_path__": "/local/home/atlasitk/TESTS/SaclayQC//configs/connectivity_itkpix/20UPGM22110466/L2_warm/0x14b6c_L2_warm.json",
    "config": "0x14b6c_L2_warm.json",
    "enable": 1,
    "locked": 0,
    "path": "relToCon",
    "rx": 11,
    "tx": 2,
    "hexSN": "0x14b6c",
    "geomId": 3,
    "name": "20UPGFC0084844",
    "component": "622206f080e95c000a45eb02",
    "chip": "622206f080e95c000a45eb02",
    "serialNumber": "20UPGFC0084844",
    "componentType": "front-end_chip",
    "testRun": "64ed33a57abd3db7d0075e7f",
    "dbVersion": 1.01,
    "sys": {
        "cts": {
            "$date": 1693266853102
        },
        "mts": {
            "$date": 1693266853102
        },
        "rev": 0
    },
    "attachments": [
        {
            "code": "64ed33a67abd3db7d0075e98",
            "dateTime": {
                "$date": 1693266854584
            },
            "title": "TagDist",
            "description": "describe",
            "contentType": "pickle",
            "filename": "TagDist.pickle"
        },
        {
            "code": "64b522f74ec160e514c9f61f",
            "dateTime": {
                "$date": 1693266854609
            },
            "title": "MeanTotDist-0",
            "description": "describe",
            "contentType": "pickle",
            "filename": "MeanTotDist-0.pickle"
        },
        {
            "code": "64ed2ff2f1d263db2273a803",
            "dateTime": {
                "$date": 1693266854731
            },
            "title": "MeanTotMap-0",
            "description": "describe",
            "contentType": "pickle",
            "filename": "MeanTotMap-0.pickle"
        },
        {
            "code": "64885cdd8c1e828490ba6e13",
            "dateTime": {
                "$date": 1693266854819
            },
            "title": "SigmaTotMap-0",
            "description": "describe",
            "contentType": "pickle",
            "filename": "SigmaTotMap-0.pickle"
        },
        {
            "code": "64885cdd8c1e828490ba6e1a",
            "dateTime": {
                "$date": 1693266854831
            },
            "title": "SigmaTotDist-0",
            "description": "describe",
            "contentType": "pickle",
            "filename": "SigmaTotDist-0.pickle"
        },
        {
            "code": "64ed33a67abd3db7d0075e9a",
            "dateTime": {
                "$date": 1693266854928
            },
            "title": "MeanTagMap-0",
            "description": "describe",
            "contentType": "pickle",
            "filename": "MeanTagMap-0.pickle"
        }
    ],
    "environment": "...",
    "config_id": "64ccc7ceea47b9f5c4cd51dd",
    "config_revision_current": "64ed33a67abd3db7d0075e97",
    "config_revision_prev": "64ed33976d8044348e8770cc"
}