{
    "_id": {
        "$oid": "64ed33a57abd3db7d0075e7f"
    },
    "ctrlStatus": {
        "channel_configuration": "16x1",
        "fe_chip_type": "RD53A/B",
        "firmware_hash": "0x4256c32",
        "firmware_identifier": "0x2030232",
        "firmware_vers": "v1.3.1",
        "fmc_card_type": "Ohio Card (Display Port)",
        "fpga_card": "Trenz TEF1001_R2",
        "lpm_status": 0,
        "rx_speed": "640Mbps"
    },
    "exec": "-r /local/home/atlasitk/SOFTS/Yarr/configs/controller/specCfg-rd53b-16x1.json -c /local/home/atlasitk/TESTS/SaclayQC//configs/connectivity_itkpix/20UPGM22110466/20UPGM22110466_L2_warm.json -s /local/home/atlasitk/SOFTS/Yarr/configs/scans/rd53b/std_totscan.json -t 6000 -o /local/home/atlasitk/TESTS/SaclayQC//run//20UPGM22110466/TUN -W TUN -i /local/home/atlasitk/TESTS/SaclayQC//configs/localdb/regional/site.json -d /local/home/atlasitk/TESTS/SaclayQC//configs/localdb/regional/database.json -u /local/home/atlasitk/TESTS/SaclayQC//configs/localdb/regional/user.json ",
    "runNumber": 1511,
    "stopwatch": {
        "analysis": 460,
        "config": 1277,
        "processing": 2,
        "scan": 6853
    },
    "targetCharge": 6000,
    "targetTot": -1,
    "testType": "std_totscan",
    "timestamp": "2023-08-29_01:53:42",
    "yarr_version": {
        "git_branch": "devel",
        "git_date": "2023-06-01 15:49:50 +0200",
        "git_hash": "030560fe6127986eda679a261d5a1f50a0267c81",
        "git_subject": "Merge branch 'devel' of https://gitlab.cern.ch/YARR/YARR into devel",
        "git_tag": "v1.4.3-105-g030560fe"
    },
    "QC": false,
    "stage": "MODULE/INITIAL_WARM",
    "chipType": "RD53B",
    "address": "6495ae631d8bddc36e4a56b5",
    "user_id": "64e5d740c5bbf1114e259b9c",
    "dbVersion": 1.01,
    "sys": {
        "cts": {
            "$date": 1693266853064
        },
        "mts": {
            "$date": 1693266853064
        },
        "rev": 0
    },
    "environment": false,
    "plots": [
        "SigmaTotMap-0",
        "MeanTotMap-0",
        "TagDist",
        "MeanTotDist-0",
        "MeanTagMap-0",
        "SigmaTotDist-0"
    ],
    "passed": true,
    "startTime": {
        "$date": 1693266822000
    },
    "finishTime": {
        "$date": 1693266835000
    },
    "ctrlCfg": "64ed33a57abd3db7d0075e86",
    "dbCfg": "64ed33a57abd3db7d0075e87",
    "siteCfg": "64ed33a57abd3db7d0075e88",
    "userCfg": "64ed33a57abd3db7d0075e89",
    "scanCfg": "64ed33a57abd3db7d0075e8a"
}