[
    {
        "serialNumber": "20UPGFC0084844",
        "testType": "TUNING",
        "passed": false,
        "results": {
            "property": {
                "ANALYSIS_VERSION": "2.1.1"
            },
            "Metadata": {
                "QC_LAYER": "L2"
            },
            "TUNING_UNTUNED_THRESHOLD_MEAN": 1971.0,
            "TUNING_UNTUNED_THRESHOLD_95_LOW": 1484.167,
            "TUNING_UNTUNED_THRESHOLD_95_HIGH": 2538.38,
            "TUNING_UNTUNED_THRESHOLD_SIGMA": 267.0,
            "TUNING_UNTUNED_TDAC_MEAN": 0.0,
            "TUNING_UNTUNED_TDAC_SIGMA": 0.0,
            "TUNING_UNTUNED_NOISE_MEAN": 41.939,
            "TUNING_UNTUNED_NOISE_SIGMA": 9.501,
            "TUNING_UNTUNED_NOISE_95_LOW": 27.776,
            "TUNING_UNTUNED_NOISE_95_HIGH": 57.658,
            "TUNING_UNTUNED_THRESHOLD_FAILED_FITS": 3076,
            "TUNING_TUNED_THRESHOLD_MEAN": 1467.8,
            "TUNING_TUNED_THRESHOLD_95_LOW": 1384.155,
            "TUNING_TUNED_THRESHOLD_95_HIGH": 1545.563,
            "TUNING_TUNED_THRESHOLD_SIGMA": 37.0,
            "TUNING_TUNED_TDAC_MEAN": 1.8,
            "TUNING_TUNED_TDAC_SIGMA": 4.7,
            "TUNING_TUNED_NOISE_MEAN": 40.682,
            "TUNING_TUNED_NOISE_SIGMA": 9.162,
            "TUNING_TUNED_NOISE_95_LOW": 27.157,
            "TUNING_TUNED_NOISE_95_HIGH": 55.345,
            "TUNING_TUNED_TOT_MEAN": 6.9,
            "TUNING_TUNED_TOT_SIGMA": 1.0,
            "TUNING_TUNED_TOT_95_LOW": 7.0,
            "TUNING_TUNED_TOT_95_HIGH": 7.0,
            "TUNING_TUNED_THRESHOLD_FAILED_FITS": 3072
        }
    }
]